{
    "sections": [
        {
            "id": 5995553603603,
            "url": "https://ucsantabarbaraextension.zendesk.com/api/v2/help_center/en-us/sections/5995553603603.json",
            "html_url": "https://ucsantabarbaraextension.zendesk.com/hc/en-us/sections/5995553603603-COVID-19-UCSB-Campus-Policy",
            "category_id": 360002248154,
            "position": 0,
            "sorting": "manual",
            "created_at": "2022-05-04T17:54:09Z",
            "updated_at": "2022-05-04T18:10:48Z",
            "name": "COVID-19 UCSB Campus Policy",
            "description": "",
            "locale": "en-us",
            "source_locale": "en-us",
            "outdated": false,
            "parent_section_id": null,
            "theme_template": "section_page"
        },
        {
            "id": 360008196453,
            "url": "https://ucsantabarbaraextension.zendesk.com/api/v2/help_center/en-us/sections/360008196453.json",
            "html_url": "https://ucsantabarbaraextension.zendesk.com/hc/en-us/sections/360008196453-COVID-19-Updates-for-International-Students",
            "category_id": 202579587,
            "position": 0,
            "sorting": "manual",
            "created_at": "2020-04-15T20:29:19Z",
            "updated_at": "2022-04-12T20:22:56Z",
            "name": "COVID-19 Updates for International Students",
            "description": "",
            "locale": "en-us",
            "source_locale": "en-us",
            "outdated": false,
            "parent_section_id": null,
            "theme_template": "section_page"
        },
        {
            "id": 360005416773,
            "url": "https://ucsantabarbaraextension.zendesk.com/api/v2/help_center/en-us/sections/360005416773.json",
            "html_url": "https://ucsantabarbaraextension.zendesk.com/hc/en-us/sections/360005416773-Quick-Start-Guide-for-PaCE-Instructors",
            "category_id": 360002248154,
            "position": 0,
            "sorting": "manual",
            "created_at": "2019-09-06T17:50:19Z",
            "updated_at": "2023-04-17T22:17:31Z",
            "name": "Quick Start Guide for PaCE Instructors",
            "description": "",
            "locale": "en-us",
            "source_locale": "en-us",
            "outdated": false,
            "parent_section_id": null,
            "theme_template": "section_page"
        },
        {
            "id": 205526108,
            "url": "https://ucsantabarbaraextension.zendesk.com/api/v2/help_center/en-us/sections/205526108.json",
            "html_url": "https://ucsantabarbaraextension.zendesk.com/hc/en-us/sections/205526108-University-Immersion-Program",
            "category_id": 202579587,
            "position": 0,
            "sorting": "manual",
            "created_at": "2016-08-09T21:31:48Z",
            "updated_at": "2023-02-13T22:21:30Z",
            "name": "University Immersion Program",
            "description": "",
            "locale": "en-us",
            "source_locale": "en-us",
            "outdated": false,
            "parent_section_id": null,
            "theme_template": "section_page"
        },
        {
            "id": 203938147,
            "url": "https://ucsantabarbaraextension.zendesk.com/api/v2/help_center/en-us/sections/203938147.json",
            "html_url": "https://ucsantabarbaraextension.zendesk.com/hc/en-us/sections/203938147-FAQs-Professional-Certificate-Programs",
            "category_id": 202588618,
            "position": 0,
            "sorting": "manual",
            "created_at": "2016-03-10T21:33:30Z",
            "updated_at": "2022-12-08T00:41:00Z",
            "name": "FAQs - Professional Certificate Programs",
            "description": "",
            "locale": "en-us",
            "source_locale": "en-us",
            "outdated": false,
            "parent_section_id": null,
            "theme_template": "section_page"
        },
        {
            "id": 203859427,
            "url": "https://ucsantabarbaraextension.zendesk.com/api/v2/help_center/en-us/sections/203859427.json",
            "html_url": "https://ucsantabarbaraextension.zendesk.com/hc/en-us/sections/203859427-Open-University-Academic-Information",
            "category_id": 202588608,
            "position": 0,
            "sorting": "manual",
            "created_at": "2016-02-24T15:49:57Z",
            "updated_at": "2022-08-23T16:43:44Z",
            "name": "Open University Academic Information",
            "description": "",
            "locale": "en-us",
            "source_locale": "en-us",
            "outdated": false,
            "parent_section_id": null,
            "theme_template": "section_page"
        },
        {
            "id": 203828167,
            "url": "https://ucsantabarbaraextension.zendesk.com/api/v2/help_center/en-us/sections/203828167.json",
            "html_url": "https://ucsantabarbaraextension.zendesk.com/hc/en-us/sections/203828167-Frequently-Asked-Questions",
            "category_id": 202579607,
            "position": 0,
            "sorting": "manual",
            "created_at": "2016-02-17T19:17:19Z",
            "updated_at": "2023-04-26T20:13:12Z",
            "name": "Frequently Asked Questions",
            "description": "",
            "locale": "en-us",
            "source_locale": "en-us",
            "outdated": false,
            "parent_section_id": null,
            "theme_template": "section_page"
        },
        {
            "id": 360008231394,
            "url": "https://ucsantabarbaraextension.zendesk.com/api/v2/help_center/en-us/sections/360008231394.json",
            "html_url": "https://ucsantabarbaraextension.zendesk.com/hc/en-us/sections/360008231394-Teaching-Online",
            "category_id": 360002248154,
            "position": 1,
            "sorting": "manual",
            "created_at": "2020-04-23T23:04:27Z",
            "updated_at": "2022-12-19T20:28:48Z",
            "name": "Teaching Online",
            "description": "IMPORTANT: Please don’t contact LSIT for help. \nContact us at program.support@extension.ucsb.edu or please call our Customer Service at 805 893-4200 (Monday through Friday, 9am-5pm PST)",
            "locale": "en-us",
            "source_locale": "en-us",
            "outdated": false,
            "parent_section_id": null,
            "theme_template": "section_page"
        },
        {
            "id": 360002424034,
            "url": "https://ucsantabarbaraextension.zendesk.com/api/v2/help_center/en-us/sections/360002424034.json",
            "html_url": "https://ucsantabarbaraextension.zendesk.com/hc/en-us/sections/360002424034-International-Diploma-Program",
            "category_id": 202579587,
            "position": 1,
            "sorting": "manual",
            "created_at": "2018-11-02T17:22:53Z",
            "updated_at": "2023-01-27T18:45:20Z",
            "name": "International Diploma Program",
            "description": "",
            "locale": "en-us",
            "source_locale": "en-us",
            "outdated": false,
            "parent_section_id": null,
            "theme_template": "section_page"
        },
        {
            "id": 206527688,
            "url": "https://ucsantabarbaraextension.zendesk.com/api/v2/help_center/en-us/sections/206527688.json",
            "html_url": "https://ucsantabarbaraextension.zendesk.com/hc/en-us/sections/206527688-FAQs-Applied-Behavior-Analysis",
            "category_id": 202588618,
            "position": 1,
            "sorting": "manual",
            "created_at": "2016-10-14T17:05:44Z",
            "updated_at": "2022-09-28T20:56:41Z",
            "name": "FAQs - Applied Behavior Analysis",
            "description": "Applied Behavior Analysis Practicum Handbook",
            "locale": "en-us",
            "source_locale": "en-us",
            "outdated": false,
            "parent_section_id": null,
            "theme_template": "section_page"
        },
        {
            "id": 205166067,
            "url": "https://ucsantabarbaraextension.zendesk.com/api/v2/help_center/en-us/sections/205166067.json",
            "html_url": "https://ucsantabarbaraextension.zendesk.com/hc/en-us/sections/205166067-Registration-",
            "category_id": 202579607,
            "position": 1,
            "sorting": "manual",
            "created_at": "2016-07-25T22:41:02Z",
            "updated_at": "2023-02-25T01:34:50Z",
            "name": "Registration ",
            "description": "",
            "locale": "en-us",
            "source_locale": "en-us",
            "outdated": false,
            "parent_section_id": null,
            "theme_template": "section_page"
        },
        {
            "id": 203896908,
            "url": "https://ucsantabarbaraextension.zendesk.com/api/v2/help_center/en-us/sections/203896908.json",
            "html_url": "https://ucsantabarbaraextension.zendesk.com/hc/en-us/sections/203896908-Open-University-Enrollment-Information",
            "category_id": 202588608,
            "position": 1,
            "sorting": "manual",
            "created_at": "2016-02-23T23:38:23Z",
            "updated_at": "2023-03-04T01:12:50Z",
            "name": "Open University Enrollment Information",
            "description": "",
            "locale": "en-us",
            "source_locale": "en-us",
            "outdated": false,
            "parent_section_id": null,
            "theme_template": "section_page"
        },
        {
            "id": 115003226808,
            "url": "https://ucsantabarbaraextension.zendesk.com/api/v2/help_center/en-us/sections/115003226808.json",
            "html_url": "https://ucsantabarbaraextension.zendesk.com/hc/en-us/sections/115003226808-Applying-to-International-Programs",
            "category_id": 202579587,
            "position": 2,
            "sorting": "manual",
            "created_at": "2017-08-24T14:56:46Z",
            "updated_at": "2023-03-09T19:16:59Z",
            "name": "Applying to International Programs",
            "description": "",
            "locale": "en-us",
            "source_locale": "en-us",
            "outdated": false,
            "parent_section_id": null,
            "theme_template": "section_page"
        },
        {
            "id": 206286048,
            "url": "https://ucsantabarbaraextension.zendesk.com/api/v2/help_center/en-us/sections/206286048.json",
            "html_url": "https://ucsantabarbaraextension.zendesk.com/hc/en-us/sections/206286048-FAQs-Child-Life",
            "category_id": 202588618,
            "position": 2,
            "sorting": "manual",
            "created_at": "2016-09-28T17:55:47Z",
            "updated_at": "2022-12-08T00:41:24Z",
            "name": "FAQs - Child Life",
            "description": "",
            "locale": "en-us",
            "source_locale": "en-us",
            "outdated": false,
            "parent_section_id": null,
            "theme_template": "section_page"
        },
        {
            "id": 203889208,
            "url": "https://ucsantabarbaraextension.zendesk.com/api/v2/help_center/en-us/sections/203889208.json",
            "html_url": "https://ucsantabarbaraextension.zendesk.com/hc/en-us/sections/203889208-Financial-Assistance-Scholarships-and-Tax-Information",
            "category_id": 202579607,
            "position": 2,
            "sorting": "manual",
            "created_at": "2016-02-23T00:06:26Z",
            "updated_at": "2023-03-30T21:53:50Z",
            "name": "Financial Assistance, Scholarships and Tax Information",
            "description": "",
            "locale": "en-us",
            "source_locale": "en-us",
            "outdated": false,
            "parent_section_id": null,
            "theme_template": "section_page"
        },
        {
            "id": 203868758,
            "url": "https://ucsantabarbaraextension.zendesk.com/api/v2/help_center/en-us/sections/203868758.json",
            "html_url": "https://ucsantabarbaraextension.zendesk.com/hc/en-us/sections/203868758-General-Questions-about-Open-University",
            "category_id": 202588608,
            "position": 2,
            "sorting": "manual",
            "created_at": "2016-02-17T19:18:04Z",
            "updated_at": "2021-09-21T22:48:49Z",
            "name": "General Questions about Open University",
            "description": "",
            "locale": "en-us",
            "source_locale": "en-us",
            "outdated": false,
            "parent_section_id": null,
            "theme_template": "section_page"
        },
        {
            "id": 4403441066131,
            "url": "https://ucsantabarbaraextension.zendesk.com/api/v2/help_center/en-us/sections/4403441066131.json",
            "html_url": "https://ucsantabarbaraextension.zendesk.com/hc/en-us/sections/4403441066131-GROW-Financial-Aid-FAQs",
            "category_id": 202579607,
            "position": 3,
            "sorting": "manual",
            "created_at": "2021-07-09T21:13:35Z",
            "updated_at": "2022-12-29T15:26:20Z",
            "name": "GROW Financial Aid FAQs",
            "description": "",
            "locale": "en-us",
            "source_locale": "en-us",
            "outdated": false,
            "parent_section_id": null,
            "theme_template": "section_page"
        },
        {
            "id": 360005474534,
            "url": "https://ucsantabarbaraextension.zendesk.com/api/v2/help_center/en-us/sections/360005474534.json",
            "html_url": "https://ucsantabarbaraextension.zendesk.com/hc/en-us/sections/360005474534-FAQs-Emergency-Medical-Technician-EMT-",
            "category_id": 202588618,
            "position": 3,
            "sorting": "manual",
            "created_at": "2019-09-12T18:19:03Z",
            "updated_at": "2023-03-15T19:30:16Z",
            "name": "FAQs - Emergency Medical Technician (EMT)",
            "description": "",
            "locale": "en-us",
            "source_locale": "en-us",
            "outdated": false,
            "parent_section_id": null,
            "theme_template": "section_page"
        },
        {
            "id": 203900318,
            "url": "https://ucsantabarbaraextension.zendesk.com/api/v2/help_center/en-us/sections/203900318.json",
            "html_url": "https://ucsantabarbaraextension.zendesk.com/hc/en-us/sections/203900318-Open-University-for-UCSB-Students",
            "category_id": 202588608,
            "position": 3,
            "sorting": "manual",
            "created_at": "2016-02-24T17:13:18Z",
            "updated_at": "2022-12-20T15:28:31Z",
            "name": "Open University for UCSB Students",
            "description": "",
            "locale": "en-us",
            "source_locale": "en-us",
            "outdated": false,
            "parent_section_id": null,
            "theme_template": "section_page"
        },
        {
            "id": 203880588,
            "url": "https://ucsantabarbaraextension.zendesk.com/api/v2/help_center/en-us/sections/203880588.json",
            "html_url": "https://ucsantabarbaraextension.zendesk.com/hc/en-us/sections/203880588-Housing-and-International-Student-Life",
            "category_id": 202579587,
            "position": 3,
            "sorting": "manual",
            "created_at": "2016-02-19T19:02:37Z",
            "updated_at": "2022-04-12T21:02:04Z",
            "name": "Housing and International Student Life",
            "description": "",
            "locale": "en-us",
            "source_locale": "en-us",
            "outdated": false,
            "parent_section_id": null,
            "theme_template": "section_page"
        },
        {
            "id": 360010154654,
            "url": "https://ucsantabarbaraextension.zendesk.com/api/v2/help_center/en-us/sections/360010154654.json",
            "html_url": "https://ucsantabarbaraextension.zendesk.com/hc/en-us/sections/360010154654-FAQ-Paralegal-Studies",
            "category_id": 202588618,
            "position": 4,
            "sorting": "manual",
            "created_at": "2020-10-01T20:54:32Z",
            "updated_at": "2022-08-17T18:39:04Z",
            "name": "FAQ - Paralegal Studies",
            "description": "",
            "locale": "en-us",
            "source_locale": "en-us",
            "outdated": false,
            "parent_section_id": null,
            "theme_template": "section_page"
        },
        {
            "id": 115004104927,
            "url": "https://ucsantabarbaraextension.zendesk.com/api/v2/help_center/en-us/sections/115004104927.json",
            "html_url": "https://ucsantabarbaraextension.zendesk.com/hc/en-us/sections/115004104927-Drop-Refund-Transfer-Withdrawal",
            "category_id": 202579607,
            "position": 4,
            "sorting": "manual",
            "created_at": "2017-12-06T17:35:40Z",
            "updated_at": "2022-10-24T21:06:39Z",
            "name": "Drop-Refund-Transfer-Withdrawal",
            "description": "",
            "locale": "en-us",
            "source_locale": "en-us",
            "outdated": false,
            "parent_section_id": null,
            "theme_template": "section_page"
        },
        {
            "id": 115003405728,
            "url": "https://ucsantabarbaraextension.zendesk.com/api/v2/help_center/en-us/sections/115003405728.json",
            "html_url": "https://ucsantabarbaraextension.zendesk.com/hc/en-us/sections/115003405728-FAQs-Young-Scholars-Program",
            "category_id": 202588608,
            "position": 4,
            "sorting": "manual",
            "created_at": "2017-09-18T22:51:46Z",
            "updated_at": "2022-10-07T01:05:37Z",
            "name": "FAQs - Young Scholars Program",
            "description": "",
            "locale": "en-us",
            "source_locale": "en-us",
            "outdated": false,
            "parent_section_id": null,
            "theme_template": "section_page"
        },
        {
            "id": 203868748,
            "url": "https://ucsantabarbaraextension.zendesk.com/api/v2/help_center/en-us/sections/203868748.json",
            "html_url": "https://ucsantabarbaraextension.zendesk.com/hc/en-us/sections/203868748-General-Information",
            "category_id": 202579587,
            "position": 4,
            "sorting": "manual",
            "created_at": "2016-02-17T19:17:47Z",
            "updated_at": "2022-09-23T17:41:02Z",
            "name": "General Information",
            "description": "",
            "locale": "en-us",
            "source_locale": "en-us",
            "outdated": false,
            "parent_section_id": null,
            "theme_template": "section_page"
        },
        {
            "id": 1500000092741,
            "url": "https://ucsantabarbaraextension.zendesk.com/api/v2/help_center/en-us/sections/1500000092741.json",
            "html_url": "https://ucsantabarbaraextension.zendesk.com/hc/en-us/sections/1500000092741-FAQs-Business-Administration-and-Management",
            "category_id": 202588618,
            "position": 5,
            "sorting": "manual",
            "created_at": "2020-12-18T21:45:13Z",
            "updated_at": "2022-08-17T18:39:04Z",
            "name": "FAQs - Business Administration and Management",
            "description": "",
            "locale": "en-us",
            "source_locale": "en-us",
            "outdated": false,
            "parent_section_id": null,
            "theme_template": "section_page"
        },
        {
            "id": 115003411348,
            "url": "https://ucsantabarbaraextension.zendesk.com/api/v2/help_center/en-us/sections/115003411348.json",
            "html_url": "https://ucsantabarbaraextension.zendesk.com/hc/en-us/sections/115003411348-Open-University-for-Community-Career-Professionals",
            "category_id": 202588608,
            "position": 5,
            "sorting": "manual",
            "created_at": "2017-09-19T17:46:05Z",
            "updated_at": "2022-12-08T00:40:24Z",
            "name": "Open University for Community \u0026 Career Professionals",
            "description": "",
            "locale": "en-us",
            "source_locale": "en-us",
            "outdated": false,
            "parent_section_id": null,
            "theme_template": "section_page"
        },
        {
            "id": 205167407,
            "url": "https://ucsantabarbaraextension.zendesk.com/api/v2/help_center/en-us/sections/205167407.json",
            "html_url": "https://ucsantabarbaraextension.zendesk.com/hc/en-us/sections/205167407-Academic-Information",
            "category_id": 202579607,
            "position": 5,
            "sorting": "manual",
            "created_at": "2016-07-25T23:13:03Z",
            "updated_at": "2023-03-08T22:56:31Z",
            "name": "Academic Information",
            "description": "",
            "locale": "en-us",
            "source_locale": "en-us",
            "outdated": false,
            "parent_section_id": null,
            "theme_template": "section_page"
        },
        {
            "id": 203880568,
            "url": "https://ucsantabarbaraextension.zendesk.com/api/v2/help_center/en-us/sections/203880568.json",
            "html_url": "https://ucsantabarbaraextension.zendesk.com/hc/en-us/sections/203880568-Enrollment-Information",
            "category_id": 202579587,
            "position": 5,
            "sorting": "manual",
            "created_at": "2016-02-19T18:59:21Z",
            "updated_at": "2022-06-23T01:53:12Z",
            "name": "Enrollment Information",
            "description": "",
            "locale": "en-us",
            "source_locale": "en-us",
            "outdated": false,
            "parent_section_id": null,
            "theme_template": "section_page"
        },
        {
            "id": 1500000095662,
            "url": "https://ucsantabarbaraextension.zendesk.com/api/v2/help_center/en-us/sections/1500000095662.json",
            "html_url": "https://ucsantabarbaraextension.zendesk.com/hc/en-us/sections/1500000095662-FAQs-Technology-Management-Program",
            "category_id": 202588618,
            "position": 6,
            "sorting": "manual",
            "created_at": "2020-12-18T22:12:28Z",
            "updated_at": "2022-08-17T18:39:04Z",
            "name": "FAQs - Technology Management Program",
            "description": "",
            "locale": "en-us",
            "source_locale": "en-us",
            "outdated": false,
            "parent_section_id": null,
            "theme_template": "section_page"
        },
        {
            "id": 205571848,
            "url": "https://ucsantabarbaraextension.zendesk.com/api/v2/help_center/en-us/sections/205571848.json",
            "html_url": "https://ucsantabarbaraextension.zendesk.com/hc/en-us/sections/205571848-SSO-Agents-only-Student-Resources-",
            "category_id": 202579607,
            "position": 6,
            "sorting": "manual",
            "created_at": "2016-08-12T20:21:13Z",
            "updated_at": "2021-07-09T21:40:29Z",
            "name": "SSO Agents only (Student Resources)",
            "description": "SSO Agent only section for Student Resources",
            "locale": "en-us",
            "source_locale": "en-us",
            "outdated": false,
            "parent_section_id": null,
            "theme_template": "section_page"
        }
    ],
    "page": 1,
    "previous_page": null,
    "next_page": "https://ucsantabarbaraextension.zendesk.com/api/v2/help_center/en-us/sections.json?page=2\u0026per_page=30",
    "per_page": 30,
    "page_count": 3,
    "count": 70,
    "sort_by": "position",
    "sort_order": "asc"
}